spi_slave/spi_slave_tb.vcd
$date
	Fri Sep 29 13:52:42 2023
$end
$version
	Icarus Verilog
$end
$timescale
	1ps
$end
$scope module spi_slave_tb $end
$var wire 1 ! o_SPI_MISO $end
$var wire 1 " led_3 $end
$var wire 1 # led_2 $end
$var wire 1 $ led_1 $end
$var wire 1 % led_0 $end
$var reg 1 & clk_12MHz $end
$var reg 1 ' i_SPI_CLK $end
$var reg 1 ( i_SPI_CS $end
$var reg 1 ) i_SPI_MOSI $end
$scope module uut $end
$var wire 1 & clk_12MHz $end
$var wire 1 ' i_SPI_CLK $end
$var wire 1 ( i_SPI_CS $end
$var wire 1 ) i_SPI_MOSI $end
$var reg 1 % led_0 $end
$var reg 1 $ led_1 $end
$var reg 1 # led_2 $end
$var reg 1 " led_3 $end
$var reg 1 * o_SPI_MISO $end
$var reg 8 + rx_byte [7:0] $end
$var reg 8 , rx_byte_tp [7:0] $end
$var reg 3 - rx_counter [2:0] $end
$var reg 1 . rx_done $end
$var reg 16 / tx_byte [15:0] $end
$var reg 5 0 tx_count [4:0] $end
$var reg 1 1 tx_ready $end
$upscope $end
$upscope $end
$enddefinitions $end
#0
$dumpvars
01
b10110 0
b1001001101001 /
0.
b0 -
b0 ,
b0 +
x*
0)
0(
0'
0&
x%
x$
x#
x"
x!
$end
#41670
1&
#83340
0&
#125010
1&
#166680
0&
#208350
1&
#250020
0&
#291690
1&
#333360
0&
#375030
1&
#416700
0&
#458370
1&
#500040
0&
#541710
1&
#583380
0&
#625050
1&
#666720
0&
#708390
1&
#750060
0&
#791730
1&
#833400
0&
#875070
1&
#916740
0&
#958410
1&
#1000080
0&
#1041750
1&
#1083420
0&
#1125090
1&
#1166760
0&
#1208430
1&
#1250100
0&
#1291770
1&
#1333440
0&
#1375110
1&
#1416780
0&
#1458450
1&
#1500120
0&
#1541790
1&
#1583460
0&
#1625130
1&
#1666800
0&
#1708470
1&
#1750140
0&
#1791810
1&
#1833480
0&
#1875150
1&
#1916820
0&
#1958490
1&
#2000160
0&
#2041830
1&
#2083500
0&
#2125170
1&
#2166840
0&
#2208510
1&
#2250180
0&
#2291850
1&
#2333520
0&
#2375190
1&
#2416860
0&
#2458530
1&
#2500200
0&
#2541870
1&
#2583540
0&
#2625210
1&
#2666880
0&
#2708550
1&
#2750220
0&
#2791890
1&
#2833560
0&
#2875230
1&
#2916900
0&
#2958570
1&
#3000240
0&
#3041910
1&
#3083580
0&
#3125250
1&
#3166920
0&
#3208590
1&
#3250260
0&
#3291930
1&
#3333600
0&
#3375270
1&
#3416940
0&
#3458610
1&
#3500280
0&
#3541950
1&
#3583620
0&
#3625290
1&
#3666960
0&
#3708630
1&
#3750300
0&
#3791970
1&
#3833640
0&
#3875310
1&
#3916980
0&
#3958650
1&
#4000320
0&
#4041990
1&
#4083660
0&
#4125330
1&
#4167000
0&
#4208670
1&
#4250340
0&
#4292010
1&
#4333680
0&
#4375350
1&
#4417020
0&
#4458690
1&
#4500360
0&
#4542030
1&
#4583700
0&
#4625370
1&
#4667040
0&
#4708710
1&
#4750380
0&
#4792050
1&
#4833720
0&
#4875390
1&
#4917060
0&
#4958730
1&
#5000000
b1 ,
b1 -
1)
1'
#5000400
0&
#5042070
1&
#5083740
0&
#5125410
1&
#5167080
0&
#5208750
1&
#5250000
0'
#5250420
0&
#5292090
1&
#5333760
0&
#5375430
1&
#5417100
0&
#5458770
1&
#5500000
b11 ,
b10 -
1'
#5500440
0&
#5542110
1&
#5583780
0&
#5625450
1&
#5667120
0&
#5708790
1&
#5750000
0'
#5750460
0&
#5792130
1&
#5833800
0&
#5875470
1&
#5917140
0&
#5958810
1&
#6000000
b110 ,
b11 -
1'
0)
#6000480
0&
#6042150
1&
#6083820
0&
#6125490
1&
#6167160
0&
#6208830
1&
#6250000
0'
#6250500
0&
#6292170
1&
#6333840
0&
#6375510
1&
#6417180
0&
#6458850
1&
#6500000
b1100 ,
b100 -
1'
#6500520
0&
#6542190
1&
#6583860
0&
#6625530
1&
#6667200
0&
#6708870
1&
#6750000
0'
#6750540
0&
#6792210
1&
#6833880
0&
#6875550
1&
#6917220
0&
#6958890
1&
#7000000
b11001 ,
b101 -
1'
1)
#7000560
0&
#7042230
1&
#7083900
0&
#7125570
1&
#7167240
0&
#7208910
1&
#7250000
0'
#7250580
0&
#7292250
1&
#7333920
0&
#7375590
1&
#7417260
0&
#7458930
1&
#7500000
b110011 ,
b110 -
1'
#7500600
0&
#7542270
1&
#7583940
0&
#7625610
1&
#7667280
0&
#7708950
1&
#7750000
0'
#7750620
0&
#7792290
1&
#7833960
0&
#7875630
1&
#7917300
0&
#7958970
1&
#8000000
b1100110 ,
b111 -
1'
0)
#8000640
0&
#8042310
1&
#8083980
0&
#8125650
1&
#8167320
0&
#8208990
1&
#8250000
0'
#8250660
0&
#8292330
1&
#8334000
0&
#8375670
1&
#8417340
0&
#8459010
1&
#8500000
1.
b11001100 +
b11001100 ,
b0 -
1'
