spi_slave/top_slave_tb.vcd
$date
	Sun Sep 24 21:49:21 2023
$end
$version
	Icarus Verilog
$end
$timescale
	1ps
$end
$scope module top_slave_tb $end
$var wire 1 ! led_3 $end
$var wire 1 " led_2 $end
$var wire 1 # led_1 $end
$var wire 1 $ led_0 $end
$var reg 1 % clk_12MHz $end
$var reg 1 & i_SPI_CLK $end
$var reg 1 ' i_SPI_CS $end
$var reg 1 ( i_SPI_MOSI $end
$scope module uut $end
$var wire 1 % clk_12MHz $end
$var wire 1 & i_SPI_CLK $end
$var wire 1 ' i_SPI_CS $end
$var wire 1 ( i_SPI_MOSI $end
$var reg 1 $ led_0 $end
$var reg 1 # led_1 $end
$var reg 1 " led_2 $end
$var reg 1 ! led_3 $end
$var reg 4 ) rx_byte [3:0] $end
$var reg 4 * rx_byte_tp [3:0] $end
$var reg 4 + rx_counter [3:0] $end
$var reg 1 , rx_done $end
$upscope $end
$upscope $end
$enddefinitions $end
#0
$dumpvars
x,
bx +
bx *
bx )
0(
0'
0&
0%
x$
x#
x"
x!
$end
#41670
1%
#83340
0%
#125010
1%
#166680
0%
#208350
1%
#250000
bx1 *
1(
1&
#250020
0%
#291690
1%
#333360
0%
#375030
1%
#416700
0%
#458370
1%
#500000
0(
0&
#500040
0%
#541710
1%
#583380
0%
#625050
1%
#666720
0%
#708390
1%
#750000
bx10 *
1&
#750060
0%
#791730
1%
#833400
0%
#875070
1%
#916740
0%
#958410
1%
#1000000
1(
0&
#1000080
0%
#1041750
1%
#1083420
0%
#1125090
1%
#1166760
0%
#1208430
1%
#1250000
bx101 *
1&
#1250100
0%
#1291770
1%
#1333440
0%
#1375110
1%
#1416780
0%
#1458450
1%
#1500000
0&
#1500120
0%
#1541790
1%
#1583460
0%
#1625130
1%
#1666800
0%
#1708470
1%
#1750000
b1011 *
1&
#1750140
0%
#1791810
1%
#1833480
0%
#1875150
1%
#1916820
0%
#1958490
1%
#2000000
0&
#2000160
0%
#2041830
1%
#2083500
0%
#2125170
1%
#2166840
0%
#2208510
1%
#2250000
b111 *
1&
#2250180
0%
#2291850
1%
#2333520
0%
#2375190
1%
#2416860
0%
#2458530
1%
#2500000
0&
1'
#2500200
0%
#2541870
1%
#2583540
0%
#2625210
1%
#2666880
0%
#2708550
1%
#2750000
b0 *
b0 +
1&
